<?xml version="1.0" encoding="UTF-8"?>
<svg width="90px" height="54px" viewBox="0 0 90 54" version="1.1" xmlns="http://www.w3.org/2000/svg" xmlns:xlink="http://www.w3.org/1999/xlink">
    <!-- Generator: Sketch 50 (54983) - http://www.bohemiancoding.com/sketch -->
    <title>fivelogo</title>
    <desc>Created with Sketch.</desc>
    <defs>
        <polygon id="path-1" points="1.54682582e-15 38.539337 1.54682582e-15 0.749673913 10.07244 0.749673913 10.07244 38.539337"></polygon>
        <polygon id="path-3" points="23.3928 28.511163 23.3928 0.0761630435 0.4158 0.0761630435 0.4158 28.511163 23.3928 28.511163"></polygon>
    </defs>
    <g id="Symbols" stroke="none" stroke-width="1" fill="none" fill-rule="evenodd">
        <g id="Footer---Mobile" transform="translate(-104.000000, -324.000000)">
            <g id="Group-Copy" transform="translate(30.000000, 323.000000)">
                <g id="fivelogo" transform="translate(74.000000, 0.000000)">
                    <path d="M5.37024,48.5812609 C5.02104,48.5812609 4.58064,48.598 4.32024,48.6075652 L4.32024,53.6687609 C4.58904,53.7046304 4.98384,53.7309348 5.24544,53.7309348 C6.85944,53.7309348 7.97304,52.9358261 7.97304,51.1471304 C7.97304,49.4301739 7.07544,48.5812609 5.37024,48.5812609 M5.16384,54.2056087 C4.56264,54.2056087 4.14144,54.1697391 3.74544,54.1781087 L3.74544,48.1424565 C4.21344,48.1424565 4.84944,48.1161522 5.44224,48.1161522 C7.43424,48.1161522 8.57424,49.0726739 8.57424,51.1112609 C8.57424,53.1857174 7.14744,54.2056087 5.16384,54.2056087" id="Fill-1" fill="#231F20"></path>
                    <polygon id="Fill-3" fill="#231F20" points="12.05712 48.1425761 12.05712 54.1782283 15.04512 54.1782283 15.04512 53.7035543 12.63192 53.7035543 12.63192 51.2895326 14.92872 51.2895326 14.92872 50.8339891 12.63192 50.8339891 12.63192 48.6076848 15.04512 48.6076848 15.04512 48.1425761"></polygon>
                    <path d="M20.73504,54.178587 L20.11584,54.178587 L17.87184,48.1429348 L18.53664,48.1429348 L20.00904,52.2751087 C20.14344,52.631413 20.31384,53.1144565 20.43984,53.5795652 L20.44824,53.5795652 C20.57424,53.1323913 20.73504,52.6768478 20.90544,52.2201087 L22.44024,48.1429348 L23.04144,48.1429348 L20.73504,54.178587 Z" id="Fill-4" fill="#231F20"></path>
                    <polygon id="Fill-6" fill="#231F20" points="26.13816 48.1425761 26.13816 54.1782283 29.12616 54.1782283 29.12616 53.7035543 26.71296 53.7035543 26.71296 51.2895326 29.00976 51.2895326 29.00976 50.8339891 26.71296 50.8339891 26.71296 48.6076848 29.12616 48.6076848 29.12616 48.1425761"></polygon>
                    <polygon id="Fill-7" fill="#231F20" points="32.85144 48.1425761 32.85144 54.1782283 35.74104 54.1782283 35.74104 53.7035543 33.42624 53.7035543 33.42624 48.1425761"></polygon>
                    <g id="Group-14" transform="translate(37.200000, 47.076533)" fill="#231F20">
                        <path d="M3.65748,1.47770652 C2.52588,1.47770652 1.53828,2.3983587 1.53828,4.02683696 C1.53828,5.59075 2.23068,6.68238043 3.64788,6.68238043 C4.76988,6.68238043 5.77548,5.77009783 5.77548,4.12488043 C5.77548,2.44379348 4.98468,1.47770652 3.65748,1.47770652 M3.57588,7.17379348 C1.78068,7.17379348 0.91908,5.95781522 0.91908,4.14281522 C0.91908,2.11259783 2.19468,0.995858696 3.72948,0.995858696 C5.38908,0.995858696 6.39348,2.10422826 6.39348,4.02683696 C6.39348,6.04748913 5.12028,7.17379348 3.57588,7.17379348" id="Fill-8"></path>
                        <path d="M11.11524,1.51273913 C10.83684,1.51273913 10.62084,1.51273913 10.41564,1.53067391 L10.41564,4.16947826 C10.59444,4.19578261 10.80084,4.21371739 11.01684,4.21371739 C12.05844,4.20415217 12.68604,3.65056522 12.68604,2.82795652 C12.68604,1.96947826 12.17484,1.51273913 11.11524,1.51273913 M10.97124,4.68719565 C10.78284,4.68719565 10.59444,4.67882609 10.41564,4.6608913 L10.41564,7.10241304 L9.84084,7.10241304 L9.84084,1.06676087 C10.25484,1.04882609 10.72044,1.04045652 11.22324,1.04045652 C12.56004,1.04045652 13.28724,1.73752174 13.28724,2.72991304 C13.28724,3.91002174 12.26484,4.68719565 10.97124,4.68719565" id="Fill-10"></path>
                        <path d="M22.368,7.10205435 L21.8028,3.19466304 C21.6948,2.41748913 21.6408,1.97868478 21.6144,1.66542391 L21.5964,1.66542391 C21.5424,1.88901087 21.444,2.22020652 21.3084,2.61357609 L19.7844,7.10205435 L19.092,7.10205435 L17.6472,2.88977174 C17.5044,2.46053261 17.3328,2.00498913 17.2704,1.66542391 L17.262,1.66542391 C17.2344,2.13053261 17.172,2.62194565 17.1,3.24846739 L16.6428,7.10205435 L16.0416,7.10205435 L16.8852,1.06640217 L17.6388,1.06640217 L19.11,5.35879348 C19.2624,5.80477174 19.3884,6.19933696 19.4508,6.51259783 L19.47,6.51259783 C19.5588,6.10966304 19.6488,5.85857609 19.7928,5.43770652 L21.3,1.06640217 L22.0896,1.06640217 L22.9776,7.10205435 L22.368,7.10205435 Z" id="Fill-12"></path>
                    </g>
                    <polygon id="Fill-15" fill="#231F20" points="63.74268 48.1425761 63.74268 54.1782283 66.73068 54.1782283 66.73068 53.7035543 64.31628 53.7035543 64.31628 51.2895326 66.61308 51.2895326 66.61308 50.8339891 64.31628 50.8339891 64.31628 48.6076848 66.73068 48.6076848 66.73068 48.1425761"></polygon>
                    <path d="M74.35896,54.178587 L71.67576,49.9579348 C71.39736,49.5286957 71.16456,49.1353261 70.96656,48.7419565 C70.99416,49.4581522 71.03016,51.2719565 71.03016,52.3994565 L71.03016,54.178587 L70.45536,54.178587 L70.45536,48.1429348 L71.23656,48.1429348 L73.88376,52.2930435 C74.14296,52.7031522 74.39496,53.1323913 74.62896,53.5520652 C74.60136,52.7031522 74.56656,50.9240217 74.56656,49.7522826 L74.56656,48.1429348 L75.14016,48.1429348 L75.14016,54.178587 L74.35896,54.178587 Z" id="Fill-16" fill="#231F20"></path>
                    <polygon id="Fill-18" fill="#231F20" points="78.23628 48.1425761 78.23628 48.6160543 80.11188 48.6160543 80.11188 54.1782283 80.68668 54.1782283 80.68668 48.6160543 82.56228 48.6160543 82.56228 48.1425761"></polygon>
                    <g id="Group-24" transform="translate(0.000000, 0.446098)">
                        <path d="M86.44836,53.8043478 C85.98996,53.8043478 85.56036,53.7505435 85.22796,53.6525 L85.26396,53.0797826 C85.62276,53.2053261 86.08116,53.3021739 86.50236,53.3021739 C87.31956,53.3021739 88.01916,52.9721739 88.01916,52.0957609 C88.01916,50.6023913 85.14756,51.1392391 85.14756,49.2608696 C85.14756,48.3234783 85.90956,47.6252174 87.20196,47.6252174 C87.58836,47.6252174 87.93876,47.6706522 88.28796,47.7328261 L88.25196,48.2696739 C87.91116,48.1608696 87.51636,48.0986957 87.15756,48.0986957 C86.23356,48.0986957 85.73076,48.5375 85.73076,49.1986957 C85.73076,50.6561957 88.61076,50.128913 88.61076,52.0156522 C88.61076,53.071413 87.78636,53.8043478 86.44836,53.8043478" id="Fill-19" fill="#231F20"></path>
                        <g id="Group-23">
                            <mask id="mask-2" fill="white">
                                <use xlink:href="#path-1"></use>
                            </mask>
                            <g id="Clip-22"></g>
                            <path d="M9.12804,2.10901087 C5.87484,2.10901087 5.40324,3.57248913 5.40324,7.54444565 L5.40324,11.4123804 L9.96684,11.4123804 L9.96684,12.9284674 L5.40324,12.9284674 L5.40324,38.539337 L3.77724,38.539337 L3.77724,12.9284674 L-0.00036,12.9284674 L-0.00036,11.4123804 L3.77724,11.4123804 L3.77724,7.59705435 C3.77724,2.57890217 4.72164,0.749554348 8.81364,0.749554348 C9.18084,0.749554348 9.60084,0.749554348 10.07244,0.800967391 L10.07244,2.16161957 C9.75804,2.16161957 9.44244,2.10901087 9.12804,2.10901087" id="Fill-21" fill="#231F20" mask="url(#mask-2)"></path>
                        </g>
                    </g>
                    <path d="M22.5552,5.8468587 L24.1824,5.8468587 L24.1824,1.45642391 L22.5552,1.45642391 L22.5552,5.8468587 Z M22.5552,38.98675 L24.1824,38.98675 L24.1824,11.8597935 L22.5552,11.8597935 L22.5552,38.98675 Z" id="Fill-25" fill="#231F20"></path>
                    <g id="Group-31" transform="translate(31.200000, 11.206967)">
                        <g id="Group-28" transform="translate(34.800000, 0.000000)">
                            <mask id="mask-4" fill="white">
                                <use xlink:href="#path-3"></use>
                            </mask>
                            <g id="Clip-27"></g>
                            <path d="M21.609,12.8827935 C21.609,5.82605435 17.6754,1.5396413 12.2718,1.5396413 C6.5538,1.5396413 2.619,5.77344565 2.2002,12.8827935 L21.609,12.8827935 Z M11.9574,28.511163 C4.9794,28.511163 0.4158,23.17975 0.4158,14.293663 C0.4158,5.40877174 4.9794,0.0761630435 11.9574,0.0761630435 C18.987,0.0761630435 23.3934,4.93768478 23.3934,13.4052935 L23.3934,14.3988804 L2.1474,14.3988804 L2.1474,14.8173587 C2.1474,22.3439891 6.291,27.0476848 11.9574,27.0476848 C16.4154,27.0476848 19.9842,24.3299674 21.243,19.8343152 L22.869,19.8343152 C21.6618,25.1143152 17.3598,28.511163 11.9574,28.511163 Z" id="Fill-26" fill="#231F20" mask="url(#mask-4)"></path>
                        </g>
                        <path d="M15.87216,23.4077609 L9.20256,5.68580435 C8.68176,4.33591304 8.26416,3.26221739 8.26416,2.81265217 C8.26416,2.57232609 8.33496,2.29373913 8.71656,2.12036957 C8.83176,2.07015217 8.99376,2.03667391 9.16536,2.01036957 L22.85616,2.01036957 C22.96296,2.03069565 23.06856,2.0546087 23.16696,2.0868913 C23.51496,2.25906522 23.61816,2.607 23.61816,2.882 C23.61816,3.19406522 23.48016,3.67830435 23.30616,4.19841304 C22.54176,6.69015217 17.88696,18.7698261 15.87216,23.4077609 Z M30.29016,0.473956522 L0.52776,0.473956522 L0.52776,2.01036957 L1.63896,2.01036957 C4.16616,2.12036957 4.71096,3.67232609 5.44656,5.00069565 L13.85856,25.9688478 C14.51736,27.6296087 14.69136,28.1150435 15.10776,28.1150435 C15.45576,28.1150435 15.59376,27.5602609 16.56696,25.4846087 C17.36616,23.7879783 18.92856,20.0491739 21.04776,14.9963478 C22.55496,11.3771087 24.03216,7.84156522 24.67656,6.26569565 L24.67656,6.2645 C24.79176,5.9871087 24.88176,5.76232609 24.93936,5.61765217 C25.17096,5.03417391 25.37736,4.56069565 25.56336,4.1721087 C26.36856,2.75047826 27.36816,2.15145652 29.26536,2.01036957 L30.29016,2.01036957 L30.29016,0.473956522 Z" id="Fill-29" fill="#231F20"></path>
                    </g>
                </g>
            </g>
        </g>
    </g>
</svg>