<?xml version="1.0" encoding="UTF-8"?>
<svg width="30px" height="42px" viewBox="0 0 30 42" version="1.1" xmlns="http://www.w3.org/2000/svg" xmlns:xlink="http://www.w3.org/1999/xlink">
    <!-- Generator: Sketch 50 (54983) - http://www.bohemiancoding.com/sketch -->
    <title>swipe-icon</title>
    <desc>Created with Sketch.</desc>
    <defs></defs>
    <g id="Sadie-Lane" stroke="none" stroke-width="1" fill="none" fill-rule="evenodd">
        <path d="M16.7940625,39.39425 C10.8671875,39.39425 6.0440625,34.5755 6.0371875,28.649875 L6.0371875,21.5205 C6.0371875,20.748625 6.6659375,20.1205 7.4384375,20.1205 C8.2115625,20.1205 8.8396875,20.748625 8.8396875,21.5205 L8.8396875,25.908 C8.8396875,26.426125 9.2596875,26.8455 9.7771875,26.8455 C10.2953125,26.8455 10.7146875,26.426125 10.7146875,25.908 L10.7146875,7.19675 C10.7146875,6.42425 11.3434375,5.7955 12.1165625,5.7955 C12.8890625,5.7955 13.5178125,6.42425 13.5178125,7.19675 L13.5178125,11.988 L13.5178125,20.54175 L13.5178125,21.2055 C13.5178125,21.72425 13.9378125,22.143 14.4553125,22.143 C14.9728125,22.143 15.3928125,21.72425 15.3928125,21.2055 L15.3928125,20.54175 L15.3928125,11.988 C15.3928125,11.2155 16.0215625,10.58675 16.7940625,10.58675 C17.5665625,10.58675 18.1953125,11.2155 18.1953125,11.988 L18.1953125,15.083 L18.1953125,19.96675 L18.1953125,23.061125 C18.1953125,23.57925 18.6153125,23.998625 19.1328125,23.998625 C19.6503125,23.998625 20.0703125,23.57925 20.0703125,23.061125 L20.0703125,19.96675 L20.0703125,15.083 C20.0703125,14.309875 20.6990625,13.681125 21.4715625,13.681125 C22.2440625,13.681125 22.8728125,14.309875 22.8728125,15.083 L22.8728125,18.227375 L22.8728125,22.236125 L22.8728125,25.3805 C22.8728125,25.898625 23.2921875,26.318 23.8103125,26.318 C24.3278125,26.318 24.7478125,25.898625 24.7478125,25.3805 L24.7478125,22.236125 L24.7478125,18.227375 C24.7478125,17.45425 25.3759375,16.826125 26.1496875,16.826125 C26.9215625,16.826125 27.5503125,17.45425 27.5503125,18.227375 L27.5503125,28.637375 C27.5503125,34.568625 22.7246875,39.39425 16.7940625,39.39425 M26.1496875,14.951125 C27.9553125,14.951125 29.4253125,16.4205 29.4253125,18.227375 L29.4253125,28.637375 C29.4253125,35.603 23.7590625,41.26925 16.7940625,41.26925 C10.0884375,41.26925 4.6021875,36.01425 4.2009375,29.407375 C4.1778125,29.327375 4.1621875,29.24425 4.1621875,29.156125 L4.1621875,28.649875 C4.1621875,28.6455 4.1615625,28.64175 4.1615625,28.637375 C4.1615625,28.6355 4.1621875,28.633625 4.1621875,28.631125 L4.1621875,21.5205 C4.1621875,19.714875 5.6321875,18.2455 7.4384375,18.2455 C7.9421875,18.2455 8.4134375,18.368625 8.8396875,18.573 L8.8396875,7.19675 C8.8396875,5.3905 10.3096875,3.9205 12.1165625,3.9205 C13.9228125,3.9205 15.3928125,5.3905 15.3928125,7.19675 L15.3928125,9.03925 C15.8190625,8.834875 16.2903125,8.71175 16.7940625,8.71175 C18.6009375,8.71175 20.0703125,10.18175 20.0703125,11.988 L20.0703125,12.133625 C20.4971875,11.929875 20.9684375,11.806125 21.4715625,11.806125 C23.2778125,11.806125 24.7478125,13.276125 24.7478125,15.083 L24.7478125,15.278 C25.1740625,15.074875 25.6459375,14.951125 26.1496875,14.951125 Z M4.1018125,0.274375 L6.6018125,2.774375 C6.9680625,3.140625 6.9680625,3.734375 6.6018125,4.1 C6.4186875,4.283125 6.1786875,4.375 5.9386875,4.375 C5.6993125,4.375 5.4593125,4.283125 5.2761875,4.1 L4.3749375,3.199375 L4.3749375,15.66 C4.3749375,16.178125 3.9555625,16.5975 3.4380625,16.5975 C2.9199375,16.5975 2.4999375,16.178125 2.4999375,15.66 L2.4999375,3.201875 L1.6005625,4.100625 C1.2343125,4.46625 0.6411875,4.46625 0.2749375,4.1 C-0.0913125,3.73375 -0.0913125,3.140625 0.2749375,2.774375 L2.7761875,0.274375 C3.1424375,-0.09125 3.7355625,-0.091875 4.1018125,0.274375 Z" id="swipe-icon" fill="#FEFEFE"></path>
    </g>
</svg>